<svg width="121" height="121" viewBox="0 0 121 121" fill="none" xmlns="http://www.w3.org/2000/svg">
<path d="M120.931 57.605C120.924 57.4537 120.917 57.3001 120.908 57.1489C120.905 57.0591 120.898 56.9693 120.894 56.8771C120.858 56.2745 120.813 55.6718 120.761 55.0692C120.7 54.3791 120.627 53.6914 120.544 53.006C120.513 52.7603 120.482 52.5121 120.447 52.2663C120.414 52.0205 120.381 51.7748 120.343 51.5313C120.267 51.0185 120.187 50.5057 120.097 49.9976C120.059 49.7754 120.019 49.5533 119.977 49.3335C119.932 49.0901 119.887 48.8467 119.837 48.6056C119.79 48.3622 119.74 48.1211 119.688 47.8801C119.594 47.4287 119.495 46.9797 119.388 46.533C119.327 46.2778 119.265 46.0225 119.204 45.7673C118.779 44.061 118.28 42.3784 117.708 40.7217C117.628 40.4854 117.545 40.2514 117.46 40.0174C117.221 39.3463 116.968 38.6775 116.701 38.0157C116.611 37.7889 116.519 37.562 116.425 37.3351C116.344 37.139 116.262 36.9452 116.179 36.749C116.087 36.5316 115.992 36.3142 115.895 36.0991C115.81 35.9053 115.725 35.7139 115.638 35.5225C115.569 35.3689 115.498 35.2176 115.427 35.064C115.404 35.0073 115.375 34.9529 115.349 34.8962C115.274 34.7355 115.198 34.5724 115.12 34.4117C114.945 34.0407 114.763 33.6744 114.579 33.3104C114.473 33.0954 114.362 32.8827 114.25 32.6676C113.998 32.1784 113.735 31.6916 113.466 31.2095C113.397 31.0819 113.329 30.9566 113.256 30.8314C113.199 30.7274 113.14 30.6258 113.081 30.5241H113.078C112.996 30.3776 112.915 30.2311 112.83 30.0869C112.7 29.8671 112.573 29.6497 112.443 29.4347C111.986 28.6737 111.511 27.9222 111.02 27.1801C110.767 26.7996 110.514 26.4238 110.252 26.0481C110.079 25.7976 109.904 25.5518 109.727 25.306C109.581 25.1004 109.432 24.8948 109.28 24.6916C109.217 24.6018 109.151 24.5143 109.084 24.4269C108.841 24.0984 108.593 23.7746 108.342 23.4532C108.037 23.0609 107.725 22.671 107.409 22.2834C107.328 22.1865 107.248 22.0872 107.165 21.988C106.433 21.1017 105.674 20.2368 104.887 19.3884C104.776 19.2702 104.665 19.1497 104.552 19.0291L104.53 19.0079C104.372 18.8401 104.214 18.6723 104.051 18.5069C103.798 18.2422 103.54 17.9798 103.28 17.7199C103.093 17.5332 102.907 17.3488 102.718 17.1669C102.607 17.0558 102.493 16.9471 102.38 16.8384C102.21 16.6729 102.037 16.5099 101.862 16.3468C101.654 16.1507 101.444 15.9569 101.234 15.7654C101.002 15.5528 100.768 15.3448 100.534 15.1368C100.283 14.9147 100.033 14.6949 99.7777 14.4798C99.6147 14.3357 99.4469 14.1962 99.2791 14.0568C99.0829 13.8914 98.8844 13.7283 98.6859 13.5652C98.4874 13.4022 98.2889 13.2415 98.088 13.0831C97.9249 12.9531 97.7595 12.8232 97.5941 12.6932C97.4192 12.5585 97.2443 12.4214 97.0671 12.2891C96.9536 12.2016 96.8402 12.1165 96.7267 12.0315C96.5897 11.9275 96.4526 11.8235 96.3132 11.7219C96.2446 11.6722 96.1761 11.6226 96.1076 11.5706C95.9705 11.4737 95.8358 11.3745 95.6963 11.2752C95.4718 11.1121 95.2473 10.9538 95.0181 10.7955C94.6021 10.5024 94.1815 10.2188 93.7561 9.9376C93.5127 9.77689 93.2693 9.61856 93.0235 9.46258C92.8013 9.32078 92.5792 9.17898 92.357 9.04191C92.3003 9.0041 92.2389 8.96629 92.1798 8.93084C91.9978 8.8174 91.8135 8.70869 91.6315 8.59762C91.5582 8.55272 91.485 8.51018 91.4117 8.46527C91.1872 8.33057 90.9627 8.19822 90.7358 8.06824C90.4853 7.92172 90.2348 7.77992 89.9796 7.63812C89.8638 7.57195 89.748 7.50814 89.6298 7.44434C88.9681 7.07803 88.2993 6.7259 87.621 6.38795C87.4603 6.30523 87.2996 6.22488 87.1365 6.14689C86.9758 6.06654 86.8151 5.98855 86.6521 5.91057C86.489 5.83258 86.3283 5.75459 86.1652 5.67897C86.0022 5.60098 85.8391 5.52535 85.676 5.45209C84.7874 5.04561 83.8894 4.66039 82.9843 4.29881C82.7574 4.20664 82.5281 4.11684 82.2989 4.02939C82.0697 3.94195 81.8404 3.85451 81.6112 3.76943C81.4363 3.70326 81.2614 3.63945 81.0842 3.57564C80.7722 3.46221 80.4603 3.3535 80.146 3.24715C79.9404 3.17625 79.7347 3.10771 79.5291 3.03918C78.2033 2.59961 76.861 2.20967 75.5045 1.86463C75.3249 1.81973 75.1429 1.77482 74.9609 1.72992C74.7553 1.68029 74.5521 1.63066 74.3441 1.5834C74.1716 1.54086 73.9991 1.50305 73.8242 1.46287C73.5902 1.41088 73.3562 1.36125 73.1199 1.31162C72.9569 1.27617 72.7938 1.24309 72.6284 1.21C72.5031 1.184 72.3802 1.16037 72.255 1.13674C70.9788 0.883867 69.6932 0.675898 68.3957 0.508106C68.2208 0.484473 68.0436 0.463203 67.8663 0.441934C67.3039 0.373398 66.7414 0.314316 66.1766 0.262324C66.1719 0.259961 66.1695 0.259961 66.1672 0.262324C65.971 0.241055 65.7725 0.224512 65.574 0.210332C65.0659 0.16543 64.5554 0.12998 64.0449 0.103984C63.9244 0.0945313 63.8015 0.0874414 63.681 0.0827148C63.5604 0.075625 63.4399 0.0708984 63.317 0.0661719C63.2721 0.0638086 63.2296 0.0614453 63.1847 0.0614453C62.9058 0.0472656 62.627 0.0378125 62.3481 0.0283594C62.3103 0.0259961 62.2701 0.0259961 62.2299 0.0259961C61.9463 0.016543 61.6627 0.00945312 61.3768 0.00708984C61.0861 0.00236328 60.793 0 60.5 0C59.3136 0 58.132 0.0330859 56.9551 0.103984C48.5465 0.58373 40.4617 2.78158 33.1072 6.52502C32.8992 6.63137 32.6936 6.73771 32.488 6.84643C31.8688 7.16783 31.252 7.50342 30.6447 7.85082C29.4016 8.55744 28.1821 9.30896 26.9887 10.1054C26.4073 10.4953 25.833 10.8947 25.2635 11.3036C22.6048 13.2155 20.0808 15.359 17.7199 17.7199C15.2621 20.1777 13.0406 22.8128 11.0696 25.592C10.6371 26.1993 10.2188 26.8138 9.80998 27.4353C8.51018 29.4205 7.33326 31.4718 6.28397 33.5846C2.65396 40.8777 0.534102 48.875 0.0898047 57.1843C0.0307227 58.2856 0 59.3893 0 60.5C0 61.7644 0.0378125 63.0216 0.115801 64.2742C0.153613 64.917 0.203242 65.5574 0.264688 66.1979C0.895684 73.0183 2.66342 79.5977 5.471 85.7186C5.79713 86.4276 6.13508 87.1295 6.48957 87.8243C7.55541 89.9276 8.74887 91.9718 10.0629 93.9475C12.2749 97.2679 14.8343 100.395 17.7199 103.28C20.6976 106.258 23.9329 108.888 27.3715 111.145C29.3543 112.45 31.4056 113.631 33.5184 114.683C34.114 114.981 34.7142 115.269 35.3192 115.546C41.4685 118.363 48.0833 120.128 54.9368 120.747C55.6576 120.816 56.3808 120.868 57.1063 120.905C58.2313 120.969 59.3633 121 60.5 121C60.8758 121 61.2492 120.998 61.6226 120.988C61.8187 120.986 62.0149 120.981 62.2087 120.974C62.2276 120.976 62.2465 120.976 62.2654 120.974C62.3386 120.972 62.4119 120.972 62.4852 120.967C62.497 120.967 62.5112 120.967 62.523 120.965C62.7735 120.957 63.024 120.948 63.2745 120.936C63.5463 120.924 63.818 120.91 64.0875 120.894C64.1229 120.894 64.1584 120.891 64.1962 120.889C64.4703 120.872 64.7445 120.856 65.0162 120.835C65.5149 120.797 66.0135 120.754 66.5098 120.707C66.7698 120.681 67.0321 120.655 67.2921 120.624C67.5497 120.596 67.8073 120.565 68.0625 120.534C68.287 120.508 68.5092 120.478 68.7337 120.447C68.8873 120.428 69.0385 120.407 69.1921 120.383C69.2985 120.369 69.4048 120.352 69.5112 120.336C69.7428 120.303 69.9744 120.267 70.2036 120.23C70.3785 120.204 70.551 120.175 70.7236 120.144C70.8535 120.123 70.9859 120.1 71.1159 120.076C71.1395 120.074 71.1631 120.069 71.1868 120.064C71.3215 120.041 71.4562 120.017 71.5885 119.991C71.6381 119.984 71.6878 119.974 71.7374 119.963C71.8697 119.939 71.9997 119.915 72.1297 119.887C72.1581 119.885 72.1864 119.88 72.2148 119.87C72.3188 119.851 72.4228 119.833 72.5244 119.811C72.7253 119.771 72.9214 119.731 73.1199 119.688C73.7462 119.558 74.3677 119.417 74.9869 119.263C75.1996 119.213 75.4099 119.159 75.6203 119.105C75.7455 119.074 75.8708 119.041 75.996 119.008C76.1615 118.965 76.3245 118.92 76.49 118.875C76.4947 118.875 76.497 118.873 76.5018 118.873C76.7003 118.819 76.9012 118.764 77.0997 118.705C77.2746 118.656 77.4518 118.606 77.6267 118.554C77.9623 118.455 78.3002 118.353 78.6335 118.249C78.8556 118.181 79.0754 118.11 79.2952 118.036C79.5362 117.958 79.7773 117.878 80.0183 117.795C80.1389 117.755 80.2594 117.715 80.3799 117.673C80.5005 117.632 80.621 117.59 80.7415 117.545C80.9802 117.46 81.2213 117.375 81.4599 117.285C81.6986 117.197 81.935 117.11 82.1737 117.018C82.41 116.926 82.6487 116.834 82.885 116.739C83.1213 116.644 83.3577 116.55 83.5916 116.453C83.8279 116.356 84.0619 116.257 84.2959 116.158C84.3101 116.153 84.3266 116.146 84.3431 116.139C84.6267 116.016 84.9103 115.893 85.1939 115.765C85.2034 115.763 85.2128 115.758 85.2223 115.754C85.5035 115.626 85.7824 115.498 86.0612 115.368C86.6308 115.101 87.1956 114.827 87.7557 114.544C88.018 114.411 88.2804 114.276 88.5427 114.139C88.7459 114.033 88.9492 113.924 89.1501 113.816C89.7456 113.499 90.3317 113.168 90.9131 112.83C91.1541 112.688 91.3928 112.547 91.6315 112.402C92.1774 112.076 92.7162 111.738 93.2504 111.393C93.463 111.256 93.6734 111.117 93.8837 110.977C94.4414 110.609 94.9945 110.228 95.5404 109.836C95.883 109.592 96.221 109.344 96.5589 109.094C96.8969 108.843 97.2301 108.59 97.561 108.33L97.958 108.019C98.1565 107.863 98.355 107.704 98.5512 107.543C98.7166 107.411 98.8797 107.276 99.0404 107.142C99.2318 106.983 99.4209 106.825 99.6099 106.664C100.872 105.594 102.096 104.464 103.28 103.28C103.557 103.004 103.831 102.725 104.1 102.444C104.263 102.276 104.424 102.106 104.582 101.935C104.894 101.607 105.197 101.276 105.499 100.943C105.785 100.624 106.069 100.305 106.348 99.981C106.376 99.9479 106.404 99.9148 106.433 99.8817C106.601 99.6879 106.766 99.4918 106.929 99.2956C107.18 98.9979 107.428 98.6977 107.671 98.3952C107.773 98.2676 107.874 98.14 107.976 98.0124C108.12 97.8304 108.262 97.6508 108.404 97.4664C108.546 97.2845 108.687 97.1001 108.827 96.9134C109.061 96.6062 109.29 96.2966 109.514 95.987C109.63 95.8263 109.746 95.668 109.859 95.5073C109.869 95.4978 109.876 95.486 109.885 95.4718C110.134 95.1244 110.379 94.7699 110.62 94.4155C110.779 94.1862 110.932 93.9546 111.084 93.723C111.091 93.7136 111.098 93.7041 111.105 93.6923C111.112 93.6805 111.121 93.6686 111.126 93.6568C111.223 93.5127 111.318 93.3709 111.41 93.2244C111.443 93.1724 111.478 93.1204 111.511 93.066C111.698 92.773 111.885 92.4776 112.069 92.1798C112.223 91.9293 112.374 91.6788 112.525 91.4259C112.584 91.3266 112.643 91.225 112.703 91.1234C112.792 90.9721 112.882 90.8209 112.97 90.6696C113.416 89.8992 113.842 89.1193 114.25 88.3324C114.385 88.0724 114.518 87.8124 114.647 87.5501C114.851 87.146 115.049 86.7419 115.241 86.333C115.397 85.9998 115.553 85.6666 115.704 85.331C115.787 85.149 115.865 84.9694 115.945 84.7874C116.042 84.57 116.134 84.3502 116.226 84.1328C116.642 83.1615 117.027 82.176 117.387 81.1834C117.45 81.0133 117.512 80.8408 117.571 80.6682C117.802 80.0183 118.02 79.3613 118.226 78.702C118.296 78.4822 118.363 78.2624 118.429 78.0426C118.493 77.8347 118.554 77.6267 118.615 77.4187C118.698 77.1351 118.779 76.8492 118.856 76.5632C118.868 76.5207 118.88 76.4781 118.89 76.4356C118.953 76.204 119.015 75.9724 119.074 75.7384C119.09 75.6794 119.107 75.6203 119.119 75.5612C119.168 75.3721 119.218 75.1807 119.263 74.9893C119.294 74.864 119.324 74.7364 119.355 74.6112C119.625 73.4768 119.863 72.3306 120.064 71.1773C120.095 71.0024 120.128 70.8252 120.156 70.6479C120.182 70.499 120.206 70.3525 120.23 70.2036C120.27 69.9602 120.308 69.7144 120.343 69.4687C120.381 69.2252 120.414 68.9795 120.447 68.7337C120.497 68.3745 120.542 68.0176 120.582 67.6584C120.605 67.4622 120.627 67.2637 120.648 67.0652C120.676 66.81 120.702 66.5524 120.726 66.2948C120.74 66.1648 120.752 66.0348 120.761 65.9072C120.773 65.7796 120.783 65.6496 120.794 65.5196C120.813 65.2904 120.83 65.0611 120.846 64.8319C120.856 64.7326 120.863 64.631 120.868 64.5318C120.879 64.3427 120.891 64.156 120.901 63.9669C120.917 63.6786 120.931 63.3903 120.943 63.102C120.969 62.5253 120.986 61.9487 120.993 61.3697C120.998 61.079 121 60.7907 121 60.5V60.4362C121 59.4885 120.976 58.5456 120.931 57.605Z" fill="#F1F1F1"/>
<path d="M121 60.5C121 60.7907 120.998 61.079 120.993 61.3697C120.986 61.9487 120.969 62.5253 120.943 63.102C120.931 63.3903 120.917 63.6786 120.901 63.9669C120.891 64.156 120.879 64.3427 120.868 64.5318C120.863 64.631 120.856 64.7326 120.846 64.8319C120.83 65.0611 120.813 65.2904 120.794 65.5196C120.783 65.6496 120.773 65.7796 120.761 65.9072C120.752 66.0348 120.74 66.1648 120.726 66.2948C120.702 66.5524 120.676 66.81 120.648 67.0652C120.627 67.2637 120.605 67.4622 120.582 67.6584C120.542 68.0176 120.497 68.3745 120.447 68.7337C120.414 68.9795 120.381 69.2252 120.343 69.4687C120.308 69.7144 120.27 69.9602 120.23 70.2036C120.206 70.3525 120.182 70.499 120.156 70.6479C120.128 70.8252 120.095 71.0024 120.064 71.1773C119.863 72.3306 119.625 73.4768 119.355 74.6112C119.324 74.7364 119.294 74.864 119.263 74.9893C119.218 75.1807 119.168 75.3721 119.119 75.5612C119.107 75.6203 119.09 75.6794 119.074 75.7384C119.015 75.9724 118.953 76.204 118.89 76.4356C118.88 76.4781 118.868 76.5207 118.857 76.5632C118.779 76.8492 118.698 77.1351 118.615 77.4187C118.554 77.6267 118.493 77.8347 118.429 78.0426C118.363 78.2624 118.296 78.4822 118.226 78.702C118.02 79.3613 117.802 80.0183 117.571 80.6682C117.512 80.8408 117.45 81.0133 117.387 81.1834C117.027 82.176 116.642 83.1615 116.226 84.1328C116.136 84.3526 116.042 84.57 115.945 84.7874C115.865 84.9694 115.787 85.149 115.704 85.331C115.553 85.6666 115.397 85.9998 115.241 86.333C115.049 86.7419 114.851 87.146 114.647 87.5501C114.518 87.8124 114.385 88.0724 114.25 88.3324C113.842 89.1193 113.416 89.8992 112.97 90.6696C112.823 90.9225 112.674 91.1754 112.525 91.4259C112.374 91.6788 112.223 91.9293 112.069 92.1798C111.885 92.4776 111.698 92.773 111.511 93.066C111.478 93.1204 111.443 93.1724 111.41 93.2244C111.318 93.3709 111.223 93.5127 111.126 93.6568C111.121 93.6686 111.112 93.6805 111.105 93.6923C111.098 93.7041 111.091 93.7136 111.084 93.723C110.932 93.9546 110.779 94.1862 110.62 94.4155C110.379 94.7699 110.134 95.1244 109.885 95.4718C109.876 95.486 109.869 95.4978 109.859 95.5073C109.746 95.668 109.63 95.8263 109.514 95.987C109.29 96.2966 109.061 96.6062 108.827 96.9134C108.687 97.1001 108.546 97.2845 108.404 97.4664C108.262 97.6508 108.12 97.8304 107.976 98.0124C107.874 98.14 107.773 98.2676 107.671 98.3952C107.428 98.6977 107.18 98.9979 106.929 99.2956C106.766 99.4918 106.601 99.6879 106.433 99.8817C106.404 99.9148 106.376 99.9479 106.348 99.981C106.069 100.305 105.785 100.624 105.499 100.943C105.197 101.276 104.894 101.607 104.582 101.935C104.424 102.106 104.263 102.276 104.1 102.444C103.831 102.725 103.557 103.004 103.28 103.28C102.096 104.464 100.872 105.594 99.6099 106.664C99.4209 106.825 99.2318 106.983 99.0404 107.142C98.8797 107.276 98.7166 107.411 98.5512 107.543C98.355 107.704 98.1565 107.863 97.958 108.019L97.561 108.33C97.2301 108.59 96.8969 108.843 96.5589 109.094C96.221 109.344 95.883 109.592 95.5404 109.836C94.9944 110.228 94.4414 110.609 93.8837 110.977C93.6734 111.117 93.463 111.256 93.2503 111.393C92.7162 111.738 92.1774 112.076 91.6315 112.402C91.3928 112.547 91.1541 112.688 90.9131 112.83C90.3317 113.168 89.7456 113.499 89.1501 113.816C88.9492 113.924 88.7459 114.033 88.5427 114.139C88.2804 114.276 88.018 114.411 87.7557 114.544C87.1956 114.829 86.6308 115.104 86.0613 115.368C85.7824 115.498 85.5035 115.626 85.2223 115.754C85.2128 115.758 85.2034 115.763 85.1939 115.765C84.9103 115.893 84.6267 116.016 84.3431 116.139C84.3266 116.146 84.3101 116.153 84.2959 116.158C84.0619 116.257 83.8279 116.356 83.5916 116.453C83.3577 116.55 83.1213 116.644 82.885 116.739C82.6487 116.834 82.41 116.926 82.1737 117.018C81.935 117.11 81.6986 117.197 81.4599 117.285C81.2213 117.375 80.9802 117.46 80.7415 117.545C80.621 117.59 80.5004 117.632 80.3799 117.673C80.2594 117.715 80.1389 117.755 80.0183 117.795C79.7773 117.878 79.5362 117.958 79.2952 118.036C79.0754 118.11 78.8556 118.181 78.6335 118.249C78.3002 118.353 77.9623 118.455 77.6267 118.554C77.4518 118.606 77.2746 118.656 77.0997 118.705C76.9012 118.764 76.7003 118.819 76.5018 118.873C76.497 118.873 76.4947 118.875 76.49 118.875C76.3245 118.92 76.1615 118.965 75.996 119.008C75.8708 119.041 75.7455 119.074 75.6203 119.105C75.4099 119.159 75.1996 119.213 74.9869 119.263C74.3677 119.417 73.7462 119.558 73.1199 119.688C72.9214 119.731 72.7253 119.771 72.5244 119.811C72.4228 119.833 72.3188 119.851 72.2148 119.87C72.1864 119.88 72.1581 119.885 72.1297 119.887C71.9997 119.915 71.8697 119.939 71.7374 119.963C71.6878 119.974 71.6381 119.984 71.5885 119.991C71.4562 120.017 71.3215 120.041 71.1868 120.064C71.1631 120.069 71.1395 120.074 71.1159 120.076C70.9859 120.1 70.8535 120.123 70.7236 120.144C70.551 120.175 70.3785 120.204 70.2036 120.23C69.9744 120.267 69.7428 120.303 69.5112 120.336C69.4048 120.352 69.2985 120.369 69.1921 120.383C69.0385 120.407 68.8873 120.428 68.7337 120.447C68.5092 120.478 68.287 120.508 68.0625 120.534C67.8073 120.565 67.5497 120.596 67.2921 120.624C67.0321 120.655 66.7698 120.681 66.5098 120.707C66.0135 120.754 65.5149 120.797 65.0162 120.835C64.7444 120.856 64.4703 120.872 64.1962 120.889C64.1584 120.891 64.1229 120.894 64.0875 120.894C63.818 120.91 63.5463 120.924 63.2745 120.936C63.024 120.948 62.7735 120.957 62.523 120.965C62.5112 120.967 62.497 120.967 62.4852 120.967C62.4119 120.972 62.3386 120.972 62.2654 120.974C62.2465 120.976 62.2276 120.976 62.2087 120.974C62.0149 120.981 61.8187 120.986 61.6226 120.988C61.2492 120.998 60.8758 121 60.5 121V0C60.793 0 61.0861 0.00236328 61.3768 0.00708984C62.0267 0.0141797 62.6719 0.0354492 63.317 0.0661719C63.4399 0.0708984 63.5604 0.075625 63.681 0.0827148C63.8015 0.0874414 63.9244 0.0945313 64.0449 0.103984C64.5554 0.12998 65.0659 0.16543 65.574 0.210332C65.7725 0.224512 65.971 0.241055 66.1672 0.262324C66.1695 0.259961 66.1719 0.259961 66.1766 0.262324C66.7414 0.314316 67.3039 0.373398 67.8664 0.441934C68.0436 0.463203 68.2208 0.484473 68.3957 0.508106C69.6932 0.675898 70.9788 0.883867 72.255 1.13674C72.3802 1.16037 72.5031 1.184 72.6284 1.21C72.7938 1.24309 72.9569 1.27617 73.1199 1.31162C73.3562 1.36125 73.5902 1.41088 73.8242 1.46287C73.9991 1.50305 74.1716 1.54086 74.3441 1.5834C74.5521 1.63066 74.7553 1.68029 74.9609 1.72992C75.1429 1.77482 75.3249 1.81973 75.5045 1.86463C76.861 2.20967 78.2033 2.59961 79.5291 3.03918C79.7347 3.10771 79.9404 3.17625 80.146 3.24715C80.4603 3.3535 80.7722 3.46221 81.0842 3.57564C81.2614 3.63945 81.4363 3.70326 81.6112 3.76943C81.8404 3.85451 82.0697 3.94195 82.2989 4.02939C82.5281 4.11684 82.7574 4.20664 82.9843 4.29881C83.8894 4.66039 84.7874 5.04561 85.676 5.45209C85.8391 5.52535 86.0022 5.60098 86.1652 5.67897C86.3283 5.75459 86.489 5.83258 86.6521 5.91057C86.8151 5.98855 86.9758 6.06654 87.1365 6.14689C87.2996 6.22488 87.4603 6.30523 87.621 6.38795C88.2993 6.7259 88.9681 7.07803 89.6298 7.44434C89.748 7.50814 89.8638 7.57195 89.9796 7.63812C90.2348 7.77992 90.4853 7.92172 90.7358 8.06824C90.9627 8.19822 91.1872 8.33057 91.4117 8.46527C91.6693 8.61889 91.9245 8.7725 92.1798 8.93084C92.2389 8.96629 92.3003 9.0041 92.357 9.04191C92.5792 9.17898 92.8013 9.32078 93.0235 9.46258C93.2693 9.61856 93.5127 9.77689 93.7561 9.9376C94.1815 10.2188 94.6021 10.5024 95.0181 10.7955C95.2473 10.9538 95.4718 11.1121 95.6963 11.2752C95.8358 11.3745 95.9705 11.4737 96.1076 11.5706C96.1761 11.6226 96.2446 11.6722 96.3132 11.7219C96.4526 11.8235 96.5897 11.9275 96.7267 12.0315C96.8402 12.1165 96.9536 12.2016 97.0671 12.2891C97.2443 12.4214 97.4192 12.5585 97.5941 12.6932C97.7595 12.8232 97.9249 12.9531 98.088 13.0831C98.2889 13.2415 98.4874 13.4022 98.6859 13.5652C98.8844 13.7283 99.0829 13.8914 99.2791 14.0568C99.4469 14.1962 99.6147 14.3357 99.7777 14.4798C100.033 14.6949 100.283 14.9147 100.534 15.1368C100.768 15.3448 101.002 15.5528 101.234 15.7654C101.444 15.9569 101.654 16.1507 101.862 16.3468C102.037 16.5099 102.21 16.6729 102.38 16.8384C102.493 16.9471 102.607 17.0558 102.718 17.1669C102.907 17.3488 103.093 17.5332 103.28 17.7199C103.54 17.9798 103.798 18.2422 104.051 18.5069C104.214 18.6723 104.372 18.8401 104.53 19.0079L104.552 19.0291C104.665 19.1497 104.776 19.2702 104.887 19.3884C105.674 20.2368 106.433 21.1017 107.165 21.988C107.248 22.0872 107.328 22.1865 107.409 22.2834C107.725 22.671 108.037 23.0609 108.342 23.4532C108.593 23.7746 108.841 24.0984 109.084 24.4269C109.151 24.5143 109.217 24.6018 109.28 24.6916C109.432 24.8948 109.581 25.1004 109.727 25.306C109.904 25.5518 110.079 25.7976 110.252 26.0481C110.514 26.4238 110.767 26.7996 111.02 27.1801C111.511 27.9222 111.986 28.6737 112.443 29.4347C112.573 29.6497 112.7 29.8671 112.83 30.0869C112.974 30.3327 113.116 30.5809 113.256 30.8314C113.329 30.9566 113.397 31.0819 113.466 31.2095C113.735 31.6916 113.998 32.1784 114.25 32.6676C114.362 32.8827 114.473 33.0954 114.579 33.3104C114.763 33.6744 114.945 34.0407 115.12 34.4117C115.198 34.5724 115.274 34.7355 115.349 34.8962C115.375 34.9529 115.404 35.0073 115.427 35.064C115.498 35.2176 115.569 35.3689 115.638 35.5225C115.725 35.7139 115.81 35.9053 115.895 36.0991C115.992 36.3142 116.087 36.5316 116.179 36.749C116.262 36.9452 116.344 37.139 116.425 37.3351C116.519 37.562 116.611 37.7889 116.701 38.0157C116.968 38.6775 117.221 39.3463 117.46 40.0174C117.545 40.2514 117.628 40.4854 117.708 40.7217C118.28 42.3784 118.779 44.061 119.204 45.7673C119.265 46.0225 119.327 46.2778 119.388 46.533C119.495 46.9797 119.594 47.4287 119.688 47.8801C119.74 48.1211 119.79 48.3622 119.837 48.6056C119.887 48.8467 119.932 49.0901 119.977 49.3335C120.019 49.5533 120.059 49.7754 120.097 49.9976C120.187 50.5057 120.267 51.0185 120.343 51.5313C120.381 51.7748 120.414 52.0205 120.447 52.2663C120.482 52.5121 120.513 52.7603 120.544 53.006C120.627 53.6914 120.7 54.3791 120.761 55.0692C120.813 55.6718 120.858 56.2745 120.894 56.8771C120.898 56.9693 120.905 57.0591 120.908 57.1489C120.917 57.3001 120.924 57.4537 120.931 57.605C120.976 58.5668 121 59.5311 121 60.5Z" fill="#E1E1E4"/>
<path d="M120.931 57.605C120.924 57.4537 120.917 57.3001 120.908 57.1489C120.905 57.0591 120.898 56.9693 120.894 56.8771C120.858 56.2745 120.813 55.6718 120.761 55.0692C120.7 54.3791 120.627 53.6914 120.544 53.006C120.513 52.7603 120.482 52.5121 120.447 52.2663C120.414 52.0205 120.381 51.7748 120.343 51.5313C120.267 51.0185 120.187 50.5057 120.097 49.9976C120.059 49.7754 120.019 49.5533 119.977 49.3335C119.932 49.0901 119.887 48.8467 119.837 48.6056C119.79 48.3622 119.74 48.1211 119.688 47.8801C119.594 47.4287 119.495 46.9797 119.388 46.533C119.327 46.2778 119.265 46.0225 119.204 45.7673C118.779 44.061 118.28 42.3784 117.708 40.7217C117.628 40.4854 117.545 40.2514 117.46 40.0174C117.221 39.3463 116.968 38.6775 116.701 38.0157C116.611 37.7889 116.519 37.562 116.425 37.3351C116.344 37.139 116.262 36.9452 116.179 36.749C116.087 36.5316 115.992 36.3142 115.895 36.0991C115.81 35.9053 115.725 35.7139 115.638 35.5225C115.569 35.3689 115.498 35.2176 115.427 35.064C115.404 35.0073 115.375 34.9529 115.349 34.8962C115.274 34.7355 115.198 34.5724 115.12 34.4117C114.945 34.0407 114.763 33.6744 114.579 33.3104C114.473 33.0954 114.362 32.8827 114.25 32.6676C113.998 32.1784 113.735 31.6916 113.466 31.2095C113.397 31.0819 113.329 30.9566 113.256 30.8314C113.116 30.5809 112.974 30.3327 112.83 30.0869C112.7 29.8671 112.573 29.6497 112.443 29.4347C111.986 28.6737 111.511 27.9222 111.02 27.1801L95.3726 36.2315C92.4823 32.0886 88.8712 28.4823 84.7236 25.5967L93.7561 9.9376C93.5127 9.77689 93.2693 9.61856 93.0235 9.46258C92.8013 9.32078 92.5792 9.17898 92.357 9.04191C92.3003 9.0041 92.2389 8.96629 92.1798 8.93084C91.9245 8.7725 91.6693 8.61889 91.4117 8.46527C91.1872 8.33057 90.9627 8.19822 90.7358 8.06824C90.4853 7.92172 90.2348 7.77992 89.9796 7.63812C89.8638 7.57195 89.748 7.50814 89.6298 7.44434C88.9681 7.07803 88.2993 6.7259 87.621 6.38795C87.4603 6.30523 87.2996 6.22488 87.1365 6.14689C86.9758 6.06654 86.8151 5.98855 86.6521 5.91057C86.489 5.83258 86.3283 5.75459 86.1652 5.67897C86.0022 5.60098 85.8391 5.52535 85.676 5.45209C84.7874 5.04561 83.8894 4.66039 82.9843 4.29881C82.7574 4.20664 82.5281 4.11684 82.2989 4.02939C82.0697 3.94195 81.8404 3.85451 81.6112 3.76943C81.4363 3.70326 81.2614 3.63945 81.0842 3.57564C80.7722 3.46221 80.4603 3.3535 80.146 3.24715C79.9404 3.17625 79.7347 3.10771 79.5291 3.03918C78.2033 2.59961 76.861 2.20967 75.5045 1.86463C75.3249 1.81973 75.1429 1.77482 74.9609 1.72992C74.7553 1.68029 74.5521 1.63066 74.3441 1.5834C74.1716 1.54086 73.9991 1.50305 73.8242 1.46287C73.5902 1.41088 73.3562 1.36125 73.1199 1.31162C72.9569 1.27617 72.7938 1.24309 72.6284 1.21C72.5031 1.184 72.3802 1.16037 72.255 1.13674C70.9788 0.883867 69.6932 0.675898 68.3957 0.508106C68.2208 0.484473 68.0436 0.463203 67.8663 0.441934C67.3039 0.373398 66.7414 0.314316 66.1766 0.262324C66.1719 0.259961 66.1695 0.259961 66.1672 0.262324C65.971 0.241055 65.7725 0.224512 65.574 0.210332C65.0659 0.16543 64.5554 0.12998 64.0449 0.103984C63.9244 0.0945313 63.8015 0.0874414 63.681 0.0827148C63.5604 0.075625 63.4399 0.0708984 63.317 0.0661719C62.9555 0.0496289 62.5939 0.0354492 62.2299 0.0259961C62.0881 0.0212695 61.9463 0.016543 61.8045 0.0141797C61.6627 0.0118164 61.5186 0.00945312 61.3768 0.00708984C61.0861 0.00236328 60.793 0 60.5 0C59.3136 0 58.132 0.0330859 56.9551 0.103984V18.1453C51.718 18.5801 46.7457 19.9674 42.2153 22.1345L33.1072 6.52502C32.8992 6.63137 32.6936 6.73771 32.488 6.84643C31.8688 7.1702 31.2568 7.51051 30.647 7.85555L30.6447 7.85082C29.4016 8.55744 28.1821 9.30896 26.9887 10.1054C26.4073 10.4953 25.833 10.8947 25.2635 11.3036C22.6048 13.2155 20.0808 15.359 17.7199 17.7199C15.2621 20.1777 13.0406 22.8128 11.0696 25.592C10.6371 26.1993 10.2188 26.8138 9.80998 27.4353C8.51018 29.4205 7.33326 31.4718 6.28397 33.5846L21.9762 42.558C19.8776 47.0435 18.5399 51.9496 18.1311 57.1158L0.0898047 57.1843C0.0307227 58.2856 0 59.3893 0 60.5C0 61.7644 0.0378125 63.0216 0.115801 64.2742C0.153613 64.917 0.203242 65.5574 0.264688 66.1979C0.895684 73.0183 2.66342 79.5977 5.471 85.7186C5.79713 86.4276 6.13508 87.1295 6.48957 87.8243C7.55541 89.9276 8.74887 91.9718 10.0629 93.9475L25.6889 84.856C28.591 88.9917 32.2092 92.5886 36.3638 95.4648L27.3715 111.145C29.3543 112.45 31.4056 113.631 33.5184 114.683C34.114 114.981 34.7142 115.269 35.3192 115.546C41.4685 118.363 48.0833 120.128 54.9368 120.747C55.6576 120.816 56.3808 120.868 57.1063 120.905C58.2313 120.969 59.3633 121 60.5 121C60.8758 121 61.2492 120.998 61.6226 120.988C61.8187 120.986 62.0149 120.981 62.2087 120.974C62.2276 120.976 62.2465 120.976 62.2654 120.974C62.3386 120.972 62.4119 120.972 62.4852 120.967C62.497 120.967 62.5112 120.967 62.523 120.965C62.7735 120.957 63.024 120.948 63.2745 120.936C63.5463 120.924 63.818 120.91 64.0875 120.894C64.1229 120.894 64.1584 120.891 64.1962 120.889L64.1513 102.845C69.3127 102.403 74.2141 101.037 78.6855 98.9104L87.7557 114.544C88.018 114.411 88.2804 114.276 88.5427 114.139C88.7459 114.033 88.9492 113.924 89.1501 113.816C89.7456 113.499 90.3317 113.168 90.9131 112.83C91.1541 112.688 91.3928 112.547 91.6315 112.402C92.1774 112.076 92.7162 111.738 93.2504 111.393C93.463 111.256 93.6734 111.117 93.8837 110.977C94.4414 110.609 94.9945 110.228 95.5404 109.836C95.883 109.592 96.221 109.344 96.5589 109.094C96.8969 108.843 97.2301 108.59 97.561 108.33L97.958 108.019C98.1565 107.863 98.355 107.704 98.5512 107.543C98.7166 107.411 98.8797 107.276 99.0404 107.142C99.2318 106.983 99.4209 106.825 99.6099 106.664C100.872 105.594 102.096 104.464 103.28 103.28C103.557 103.004 103.831 102.725 104.1 102.444C104.263 102.276 104.424 102.106 104.582 101.935C104.894 101.607 105.197 101.276 105.499 100.943C105.785 100.624 106.069 100.305 106.348 99.981C106.376 99.9479 106.404 99.9148 106.433 99.8817C106.601 99.6879 106.766 99.4918 106.929 99.2956C107.18 98.9979 107.428 98.6977 107.671 98.3952C107.773 98.2676 107.874 98.14 107.976 98.0124C108.12 97.8304 108.262 97.6508 108.404 97.4664C108.546 97.2845 108.687 97.1001 108.827 96.9134C109.061 96.6062 109.29 96.2966 109.514 95.987C109.63 95.8263 109.746 95.668 109.859 95.5073C109.869 95.4978 109.876 95.486 109.885 95.4718C110.134 95.1244 110.379 94.7699 110.62 94.4155C110.779 94.1862 110.932 93.9546 111.084 93.723C111.091 93.7136 111.098 93.7041 111.105 93.6923C111.112 93.6805 111.121 93.6686 111.126 93.6568C111.223 93.5127 111.318 93.3709 111.41 93.2244C111.443 93.1724 111.478 93.1204 111.511 93.066C111.698 92.773 111.885 92.4776 112.069 92.1798C112.223 91.9293 112.374 91.6788 112.525 91.4259C112.674 91.1754 112.823 90.9225 112.97 90.6696C113.416 89.8992 113.842 89.1193 114.25 88.3324C114.385 88.0724 114.518 87.8124 114.647 87.5501L98.979 78.5389C101.087 74.0605 102.436 69.1543 102.859 63.9906L120.901 63.9669C120.917 63.6786 120.931 63.3903 120.943 63.102C120.969 62.5253 120.986 61.9487 120.993 61.3697C120.998 61.079 121 60.7907 121 60.5C121 59.5311 120.976 58.5668 120.931 57.605ZM60.5 95.9138C40.9722 95.9138 25.0862 80.0278 25.0862 60.5C25.0862 40.9722 40.9722 25.0862 60.5 25.0862C80.0278 25.0862 95.9138 40.9722 95.9138 60.5C95.9138 80.0278 80.0278 95.9138 60.5 95.9138Z" fill="#EE776F"/>
<path d="M85.5425 85.5425C78.8528 92.2292 69.959 95.9138 60.5 95.9138V25.0862C69.959 25.0862 78.8528 28.7711 85.5425 35.4575C92.2292 42.147 95.9138 51.041 95.9138 60.5C95.9138 69.959 92.2292 78.853 85.5425 85.5425Z" fill="#E1E1E4"/>
<path d="M121 60.5C121 60.7907 120.998 61.079 120.993 61.3697C120.986 61.9487 120.969 62.5253 120.943 63.102C120.931 63.3903 120.917 63.6786 120.901 63.9669L102.859 63.9906C102.436 69.1543 101.087 74.0605 98.9789 78.5389L114.647 87.5501C114.518 87.8124 114.385 88.0724 114.25 88.3324C113.842 89.1193 113.416 89.8992 112.97 90.6696C112.823 90.9225 112.674 91.1754 112.525 91.4259C112.374 91.6788 112.223 91.9293 112.069 92.1798C111.885 92.4776 111.698 92.773 111.511 93.066C111.478 93.1204 111.443 93.1724 111.41 93.2244C111.318 93.3709 111.223 93.5127 111.126 93.6568C111.121 93.6686 111.112 93.6805 111.105 93.6923C111.098 93.7041 111.091 93.7136 111.084 93.723C110.932 93.9546 110.779 94.1862 110.62 94.4155C110.379 94.7699 110.134 95.1244 109.885 95.4718C109.876 95.486 109.869 95.4978 109.859 95.5073C109.746 95.668 109.63 95.8263 109.514 95.987C109.29 96.2966 109.061 96.6062 108.827 96.9134C108.687 97.1001 108.546 97.2845 108.404 97.4664C108.262 97.6508 108.12 97.8304 107.976 98.0124C107.874 98.14 107.773 98.2676 107.671 98.3952C107.428 98.6977 107.18 98.9978 106.929 99.2956C106.766 99.4918 106.601 99.6879 106.433 99.8817C106.404 99.9148 106.376 99.9479 106.348 99.981C106.069 100.305 105.785 100.624 105.499 100.943C105.197 101.276 104.894 101.607 104.582 101.935C104.424 102.106 104.263 102.276 104.1 102.444C103.831 102.725 103.557 103.004 103.28 103.28C102.096 104.464 100.872 105.594 99.6099 106.664C99.4209 106.825 99.2318 106.983 99.0404 107.142C98.8797 107.276 98.7166 107.411 98.5512 107.543C98.355 107.704 98.1565 107.863 97.958 108.019L97.561 108.33C97.2301 108.59 96.8969 108.843 96.5589 109.094C96.221 109.344 95.883 109.592 95.5404 109.836C94.9944 110.228 94.4414 110.609 93.8837 110.977C93.6734 111.117 93.463 111.256 93.2503 111.393C92.7162 111.738 92.1774 112.076 91.6315 112.402C91.3928 112.547 91.1541 112.688 90.9131 112.83C90.3317 113.168 89.7456 113.499 89.1501 113.816C88.9492 113.924 88.7459 114.033 88.5427 114.139C88.2804 114.276 88.018 114.411 87.7557 114.544L78.6855 98.9104C74.2141 101.037 69.3127 102.403 64.1513 102.845L64.1962 120.889C64.1584 120.891 64.1229 120.894 64.0875 120.894C63.818 120.91 63.5463 120.924 63.2745 120.936C63.024 120.948 62.7735 120.957 62.523 120.965C62.5112 120.967 62.497 120.967 62.4852 120.967C62.4119 120.972 62.3386 120.972 62.2654 120.974C62.2465 120.976 62.2276 120.976 62.2087 120.974C62.0149 120.981 61.8187 120.986 61.6226 120.988C61.2492 120.998 60.8758 121 60.5 121V95.9138C80.0278 95.9138 95.9138 80.0278 95.9138 60.5C95.9138 40.9722 80.0278 25.0862 60.5 25.0862V0C60.793 0 61.0861 0.00236328 61.3768 0.00708984C61.5186 0.00945312 61.6627 0.0118164 61.8045 0.0141797C61.9463 0.016543 62.0881 0.0212695 62.2299 0.0259961C62.5939 0.0354492 62.9555 0.0496289 63.317 0.0661719C63.4399 0.0708984 63.5604 0.075625 63.681 0.0827148C63.8015 0.0874414 63.9244 0.0945312 64.0449 0.103984C64.5554 0.12998 65.0659 0.16543 65.574 0.210332C65.7725 0.224512 65.971 0.241055 66.1672 0.262324C66.1695 0.259961 66.1719 0.259961 66.1766 0.262324C66.7414 0.314316 67.3039 0.373398 67.8664 0.441934C68.0436 0.463203 68.2208 0.484473 68.3957 0.508106C69.6932 0.675898 70.9788 0.883867 72.255 1.13674C72.3802 1.16037 72.5031 1.184 72.6284 1.21C72.7938 1.24309 72.9569 1.27617 73.1199 1.31162C73.3562 1.36125 73.5902 1.41088 73.8242 1.46287C73.9991 1.50305 74.1716 1.54086 74.3441 1.5834C74.5521 1.63066 74.7553 1.68029 74.9609 1.72992C75.1429 1.77482 75.3249 1.81973 75.5045 1.86463C76.861 2.20967 78.2033 2.59961 79.5291 3.03918C79.7347 3.10771 79.9404 3.17625 80.146 3.24715C80.4603 3.3535 80.7722 3.46221 81.0842 3.57564C81.2614 3.63945 81.4363 3.70326 81.6112 3.76943C81.8404 3.85451 82.0697 3.94195 82.2989 4.02939C82.5281 4.11684 82.7574 4.20664 82.9843 4.29881C83.8894 4.66039 84.7874 5.04561 85.676 5.45209C85.8391 5.52535 86.0022 5.60098 86.1652 5.67897C86.3283 5.75459 86.489 5.83258 86.6521 5.91057C86.8151 5.98855 86.9758 6.06654 87.1365 6.14689C87.2996 6.22488 87.4603 6.30523 87.621 6.38795C88.2993 6.7259 88.9681 7.07803 89.6298 7.44434C89.748 7.50814 89.8638 7.57195 89.9796 7.63812C90.2348 7.77992 90.4853 7.92172 90.7358 8.06824C90.9627 8.19822 91.1872 8.33057 91.4117 8.46527C91.6693 8.61889 91.9245 8.7725 92.1798 8.93084C92.2389 8.96629 92.3003 9.0041 92.357 9.04191C92.5792 9.17898 92.8013 9.32078 93.0235 9.46258C93.2693 9.61856 93.5127 9.77689 93.7561 9.9376L84.7236 25.5967C88.8712 28.4823 92.4823 32.0886 95.3726 36.2315L111.02 27.1801C111.511 27.9222 111.986 28.6737 112.443 29.4347C112.573 29.6497 112.7 29.8671 112.83 30.0869C112.974 30.3327 113.116 30.5809 113.256 30.8314C113.329 30.9566 113.397 31.0819 113.466 31.2095C113.735 31.6916 113.998 32.1784 114.25 32.6676C114.362 32.8827 114.473 33.0954 114.579 33.3104C114.763 33.6744 114.945 34.0407 115.12 34.4117C115.198 34.5724 115.274 34.7355 115.349 34.8962C115.375 34.9529 115.404 35.0073 115.427 35.064C115.498 35.2176 115.569 35.3689 115.638 35.5225C115.725 35.7139 115.81 35.9053 115.895 36.0991C115.992 36.3142 116.087 36.5316 116.179 36.749C116.262 36.9452 116.344 37.139 116.425 37.3351C116.519 37.562 116.611 37.7889 116.701 38.0157C116.968 38.6775 117.221 39.3463 117.46 40.0174C117.545 40.2514 117.628 40.4854 117.708 40.7217C118.28 42.3784 118.779 44.061 119.204 45.7673C119.265 46.0225 119.327 46.2778 119.388 46.533C119.495 46.9797 119.594 47.4287 119.688 47.8801C119.74 48.1211 119.79 48.3622 119.837 48.6056C119.887 48.8467 119.932 49.0901 119.977 49.3335C120.019 49.5533 120.059 49.7754 120.097 49.9976C120.187 50.5057 120.267 51.0185 120.343 51.5313C120.381 51.7748 120.414 52.0205 120.447 52.2663C120.482 52.5121 120.513 52.7603 120.544 53.006C120.627 53.6914 120.7 54.3791 120.761 55.0692C120.813 55.6718 120.858 56.2745 120.894 56.8771C120.898 56.9693 120.905 57.0591 120.908 57.1489C120.917 57.3001 120.924 57.4537 120.931 57.605C120.976 58.5668 121 59.5311 121 60.5Z" fill="#D56A63"/>
<path d="M67.0466 53.732H58.3106V57.596C58.6839 57.1853 59.2066 56.8493 59.8786 56.588C60.5506 56.3266 61.2786 56.196 62.0626 56.196C63.4626 56.196 64.6199 56.5133 65.5346 57.148C66.4679 57.7826 67.1492 58.604 67.5786 59.612C68.0079 60.62 68.2226 61.712 68.2226 62.888C68.2226 65.072 67.6066 66.808 66.3746 68.096C65.1426 69.3653 63.4066 70 61.1666 70C59.6732 70 58.3759 69.748 57.2746 69.244C56.1732 68.7213 55.3239 68.0026 54.7266 67.088C54.1292 66.1733 53.8026 65.1186 53.7466 63.924H58.4226C58.5346 64.5026 58.8052 64.988 59.2346 65.38C59.6639 65.7533 60.2519 65.94 60.9986 65.94C61.8759 65.94 62.5292 65.66 62.9586 65.1C63.3879 64.54 63.6026 63.7933 63.6026 62.86C63.6026 61.9453 63.3786 61.2453 62.9306 60.76C62.4826 60.2746 61.8292 60.032 60.9706 60.032C60.3359 60.032 59.8132 60.1906 59.4026 60.508C58.9919 60.8066 58.7212 61.208 58.5906 61.712H53.9706V49.532H67.0466V53.732Z" fill="#EE776F"/>
</svg>